easy counterfactuals
   NETWORK ASSET AGENDA LEADERSHIP AUTONOMY
1        0     0      0          0        0
2        0     0      0          0        1
3        0     0      0          1        0
5        0     0      1          0        0
6        0     0      1          0        1
11       0     1      0          1        0
13       0     1      1          0        0
15       0     1      1          1        0
17       1     0      0          0        0
18       1     0      0          0        1
19       1     0      0          1        0
21       1     0      1          0        0
23       1     0      1          1        0
25       1     1      0          0        0